Notes
…
icu_cohort |> 
  group_by(race) |>
  summarise(
    mortality_rate = sum(hospital_expire_flag) / n()
  ) |>
  print(width = Inf) |>
  ggplot() +
    geom_col(mapping = aes(
      x = reorder(race, mortality_rate), # reorder race according to mortality_rate
      y = mortality_rate)
      ) +
    coord_flip()

# A tibble: 33 × 2
   race                          mortality_rate
   <chr>                                  <dbl>
 1 AMERICAN INDIAN/ALASKA NATIVE         0.106 
 2 ASIAN                                 0.132 
 3 ASIAN - ASIAN INDIAN                  0.0887
 4 ASIAN - CHINESE                       0.126 
 5 ASIAN - KOREAN                        0.151 
 6 ASIAN - SOUTH EAST ASIAN              0.140 
 7 BLACK/AFRICAN                         0.0928
 8 BLACK/AFRICAN AMERICAN                0.107 
 9 BLACK/CAPE VERDEAN                    0.0777
10 BLACK/CARIBBEAN ISLAND                0.108 
# ℹ 23 more rows
…
